Guias/guia09/codigos/Exemplo_0907.vcd
$date
	Sun Oct 02 19:45:12 2022
$end
$version
	Icarus Verilog
$end
$timescale
	1s
$end
$scope module Exemplo_0907 $end
$var wire 1 ! clock $end
$upscope $end
$scope module Exemplo_0907 $end
$var wire 1 " p $end
$upscope $end
$enddefinitions $end
#0
$dumpvars
x"
0!
$end
#12
1!
#24
1"
0!
#29
0"
#36
1!
#48
1"
0!
#53
0"
#60
1!
#72
1"
0!
#77
0"
#84
1!
#96
1"
0!
#101
0"
#108
1!
#120
1"
0!
