Guias/guia09/codigos/Exemplo_0905_GTKWave.vcd
$date
	Sun Oct 02 19:37:16 2022
$end
$version
	GTKWave Analyzer v3.3.100 (w)1999-2019 BSI
$end
$timescale
	1 s
$end
$scope module Exemplo_0905 $end
$var wire 1 " clock $end
$var wire 1 # p $end
$upscope $end
$enddefinitions $end
$dumpvars
#0
x#
0"
#12
1"
#24
0"
#36
1"
#48
0"
#60
1"
#72
0"
0#
#84
1"
#96
0"
#108
1"
#120
0"
1#
#132
1"
#144
0"
#156
1"
#168
0"
0#
#180
1"
#192
0"
#204
1"
#216
0"
1#
#228
1"
#240
0"
#252
1"
#264
0"
0#
#276
1"
#288
0"
#300
1"
#312
0"
1#
#324
1"
#336
0"
#348
1"
#360
0"
0#
#372
1"
#384
0"
#396
1"
#408
0"
1#
#420
1"
#432
0"
#444
1"
#456
0"
0#
