Guias/guia09/codigos/Exemplo_0904_GTKWave.vcd
$date
	Sun Oct 02 19:13:18 2022
$end
$version
	GTKWave Analyzer v3.3.100 (w)1999-2019 BSI
$end
$timescale
	1 s
$end
$scope module Exemplo_0904 $end
$var wire 1 # p $end
$var wire 1 " clock $end
$upscope $end
$enddefinitions $end
$dumpvars
#0
0"
0#
#4
1#
#8
0#
#12
1#
1"
#16
0#
#20
1#
#24
0#
0"
#28
1#
#32
0#
#36
1#
1"
#40
0#
#44
1#
#48
0#
0"
#52
1#
#56
0#
#60
1#
1"
#64
0#
#68
1#
#72
0#
0"
#76
1#
#80
0#
#84
1#
1"
#88
0#
#92
1#
#96
0#
0"
#100
1#
#104
0#
#108
1#
1"
#112
0#
#116
1#
#120
0#
0"
